Covid19 case locations
…
  ..   Exposure.Location = col_character(),
  ..   Street = col_character(),
  ..   Suburb = col_character(),
  ..   Date = col_character(),
  ..   Arrival.Time = col_character(),
  ..   Departure.Time = col_character(),
  ..   Contact = col_character(),
  ..   lat = col_double(),
  ..   lon = col_double(),
  ..   doubles = col_character(),
  ..   moved = col_logical()
  .. )
 - attr(*, "problems")=<externalptr> 

# A tibble: 175 x 15
   Status Exposure.Location   Street   Suburb Date   Arrival.Time Departure.Time
   <chr>  <chr>               <chr>    <chr>  <chr>  <chr>        <chr>         
 1 <NA>   "Smile Sensations ~ 13/15 K~ "Case~ 11/08~ 5:50pm       6:50pm        
 2 New    "Centrelink and Me~ 5 Fusse~ "Gung~ 13/08~ 2:40pm       4:00pm        
 3 <NA>   "7-Eleven Phillip"  86 Parr~ "Phil~ 13/08~ 10:55am      11:10am       
 4 <NA>   "ALDI Belconnen"    Westfie~ "Belc~ 13/08~ 8:45am       9:20am        
 5 <NA>   "ALDI Belconnen"    Westfie~ "Belc~ 13/08~ 2:00pm       2:25pm        
 6 <NA>   "ALDI Weston Creek" Brierly~ "West~ 13/08~ 6:00pm       6:30pm        
 7 <NA>   "Bus Route 66 Tran~ Coombs ~ "Publ~ 13/08~ 12:21pm      12:33pm       
 8 <NA>   "Bus Route 70 Tran~ Woden I~ "Publ~ 13/08~ 12:57pm      1:15pm        
 9 <NA>   "Capital Chemist O~ 9 Sargo~ "O\x9~ 13/08~ 9:35am       10:00am       
10 <NA>   "Coles Amaroo"      Horse P~ "Amar~ 13/08~ 11:30am      1:00pm        
# ... with 165 more rows, and 8 more variables: Contact <fct>, lat <dbl>,
#   lon <dbl>, doubles <chr>, moved <lgl>, colsN <fct>, conDate <date>,
#   locName <fct>
…
